module gitlab.com/gorib/env

go 1.23.0

require (
	github.com/joho/godotenv v1.5.1
	github.com/stretchr/testify v1.10.0
	golang.org/x/exp v0.0.0-20250218142911-aa4b98e5adaa
)

require (
	github.com/davecgh/go-spew v1.1.1 // indirect
	github.com/pmezard/go-difflib v1.0.0 // indirect
	gopkg.in/yaml.v3 v3.0.1 // indirect
)
